<svg class="svg-facebook" viewBox="0 0 1536 1536" xmlns="http://www.w3.org/2000/svg" fill-rule="evenodd" clip-rule="evenodd" stroke-linejoin="round" stroke-miterlimit="1.414">
  <path d="M1248 0c79.333 0 147.167 28.167 203.5 84.5S1536 208.667 1536 288v960c0 79.333-28.167 147.167-84.5 203.5S1327.333 1536 1248 1536h-188V941h199l30-232h-229V561c0-37.333 7.833-65.333 23.5-84s46.167-28 91.5-28l122-1V241c-42-6-101.333-9-178-9-90.667 0-163.167 26.667-217.5 80S820 440.667 820 538v171H620v232h200v595H288c-79.333 0-147.167-28.167-203.5-84.5S0 1327.333 0 1248V288c0-79.333 28.167-147.167 84.5-203.5S208.667 0 288 0h960z" fill-rule="nonzero"/>
</svg>
