<svg class="svg-comment" viewBox="0 0 27 25" xmlns="http://www.w3.org/2000/svg" fill-rule="evenodd" clip-rule="evenodd" stroke-linejoin="round" stroke-miterlimit="1.414">
  <path d="M4.078 25c.09 0 .18-.018.266-.054l4.633-1.977c1.454.453 2.974.683 4.524.683 7.445 0 13.501-5.305 13.501-11.826C27.002 5.305 20.946 0 13.501 0 6.056 0 0 5.305 0 11.826c0 3.14 1.449 6.177 3.988 8.389l-.58 4.011a.678.678 0 0 0 .67.774zm4.865-3.429c-.09 0-.18.018-.265.054L4.92 23.228l.461-3.191a.68.68 0 0 0-.241-.621c-2.442-1.999-3.787-4.695-3.787-7.59 0-5.774 5.45-10.472 12.148-10.472 6.698 0 12.148 4.698 12.148 10.472 0 5.774-5.45 10.472-12.148 10.472-1.493 0-2.955-.233-4.345-.693a.673.673 0 0 0-.213-.034z" fill-rule="nonzero"/>
</svg>
