<svg class="svg-phone" viewBox="0 0 14 25" xmlns="http://www.w3.org/2000/svg" fill-rule="evenodd" clip-rule="evenodd" stroke-linejoin="round" stroke-miterlimit="1.414">
  <path d="M2.17 0A1.7 1.7 0 0 0 .465 1.705v21.594a1.7 1.7 0 0 0 1.705 1.704h9.66a1.7 1.7 0 0 0 1.705-1.704V1.705A1.7 1.7 0 0 0 11.83 0H2.17zm-.568 2.841h10.796v18.185H1.602V2.841zM7 22.162a.852.852 0 1 1 0 1.705.852.852 0 0 1 0-1.705z" fill-rule="nonzero"/>
</svg>
